{
  "AF": "afghanistan",
  "AX": "aland islands",
  "AL": "albania",
  "DZ": "algeria",
  "AS": "american samoa",
  "AD": "andorra",
  "AO": "angola",
  "AI": "anguilla",
  "AG": "antigua & barbuda",
  "AR": "argentina",
  "AM": "armenia",
  "AW": "aruba",
  "AU": "australia",
  "AT": "austria",
  "AZ": "azerbaijan",
  "BS": "bahamas",
  "BH": "bahrain",
  "BD": "bangladesh",
  "BB": "barbados",
  "BY": "belarus",
  "BE": "belgium",
  "BZ": "belize",
  "BJ": "benin",
  "BM": "bermuda",
  "BT": "bhutan",
  "BO": "bolivia",
  "BQ": "bonaire",
  "BA": "bosnia & herze",
  "BW": "botswana",
  "BR": "brazil",
  "IO": "B indian ocean",
  "VG": "B virgin islands",
  "BN": "brunei",
  "BG": "bulgaria",
  "BF": "burkina faso",
  "BI": "burundi",
  "KH": "cambodia",
  "CM": "cameroon",
  "CA": "canada",
  "CV": "cape verde",
  "KY": "cayman islands",
  "CF": "central african R",
  "TD": "chad",
  "CL": "chile",
  "CN": "china",
  "CX": "christmas island",
  "CC": "cocos islands",
  "CO": "colombia",
  "KM": "comoros",
  "CG": "congo",
  "CK": "cook islands",
  "CR": "costa rica",
  "HR": "croatia",
  "CU": "cuba",
  "CW": "curacao",
  "CY": "cyprus",
  "CZ": "czech republic",
  "CD": "democratic congo",
  "DK": "denmark",
  "DJ": "djibouti",
  "DM": "dominica",
  "DO": "dominican republic",
  "TP": "east timor",
  "EC": "ecuador",
  "EG": "egypt",
  "SV": "el salvador",
  "GQ": "equatorial guinea",
  "ER": "eritrea",
  "EE": "estonia",
  "ET": "ethiopia",
  "FK": "falklands/malvinas",
  "FO": "faroe islands",
  "FJ": "fiji",
  "FI": "finland",
  "FR": "france",
  "GF": "french guiana",
  "PF": "french polynesia",
  "GA": "gabon",
  "GM": "gambia",
  "GE": "georgia",
  "DE": "germany",
  "GH": "ghana",
  "GI": "gibraltar",
  "GR": "greece",
  "GL": "greenland",
  "GD": "grenada",
  "GP": "guadaloupe",
  "GU": "guam",
  "GT": "guatemala",
  "GG": "guernsey",
  "GW": "guinea-bissau",
  "GN": "guinea",
  "GY": "guyana",
  "HT": "haiti",
  "HN": "honduras",
  "HK": "hong kong",
  "HU": "hungary",
  "IS": "iceland",
  "IN": "india",
  "ID": "indonesia",
  "IR": "iran",
  "IQ": "iraq",
  "IE": "ireland",
  "IM": "isle of man",
  "IL": "israel",
  "IT": "italy",
  "CI": "ivory coast",
  "JM": "jamaica",
  "JP": "japan",
  "JE": "jersey",
  "JO": "jordan",
  "KZ": "kazakhstan",
  "KE": "kenya",
  "KI": "kiribati",
  "KW": "kuwait",
  "KG": "kyrgyzstan",
  "LA": "laos",
  "LV": "latvia",
  "LB": "lebanon",
  "LS": "lesotho",
  "LR": "liberia",
  "LY": "libya",
  "LI": "liechtenstein",
  "LT": "lithuania",
  "LU": "luxembourg",
  "MO": "macao",
  "MK": "macedonia",
  "MG": "madagascar",
  "MW": "malawi",
  "MY": "malaysia",
  "MV": "maldives",
  "ML": "mali",
  "MT": "malta",
  "MH": "marshalls",
  "MQ": "martinique",
  "MR": "mauritania",
  "MU": "mauritius",
  "YT": "mayotte",
  "MX": "mexico",
  "FM": "micronesia",
  "MD": "moldova",
  "MC": "monaco",
  "MN": "mongolia",
  "ME": "montenegro",
  "MS": "montserrat",
  "MA": "morocco",
  "MZ": "mozambique",
  "MM": "myanmar",
  "NA": "namibia",
  "NR": "nauru",
  "NP": "nepal",
  "NL": "netherlands",
  "NC": "new caledonia",
  "NZ": "new zealand",
  "NI": "nicaragua",
  "NE": "niger",
  "NG": "nigeria",
  "NU": "niue",
  "NF": "norfolk island",
  "KP": "north korea",
  "MP": "north marianas",
  "NO": "norway",
  "OM": "oman",
  "PK": "pakistan",
  "PW": "palau",
  "PS": "palestine",
  "PA": "panama",
  "PG": "papua new guinea",
  "PY": "paraguay",
  "PE": "peru",
  "PH": "philippines",
  "PL": "poland",
  "PT": "portugal",
  "PR": "puerto rico",
  "QA": "qatar",
  "RE": "reunion",
  "RO": "romania",
  "RU": "russia",
  "RW": "rwanda",
  "BL": "st. barthelemy",
  "SH": "st. helena",
  "KN": "st. kitts & nevis",
  "LC": "st. lucia",
  "MF": "st. martin",
  "PM": "st. pierre",
  "VC": "st. vincent",
  "WS": "samoa",
  "SM": "san marino",
  "ST": "sao tome",
  "SA": "saudi arabia",
  "SN": "senegal",
  "RS": "serbia",
  "SC": "seychelles",
  "SL": "sierra leone",
  "SG": "singapore",
  "SX": "sint maarten",
  "SK": "slovakia",
  "SI": "slovenia",
  "SB": "solomons",
  "SO": "somalia",
  "ZA": "south africa",
  "KR": "south korea",
  "SS": "south sudan",
  "ES": "spain",
  "LK": "sri lanka",
  "SD": "sudan",
  "SR": "suriname",
  "SZ": "swaziland",
  "SE": "sweden",
  "CH": "switzerland",
  "SY": "syria",
  "TW": "taiwan",
  "TJ": "tajikistan",
  "TZ": "tanzania",
  "TH": "thailand",
  "TG": "togo",
  "TK": "tokelau",
  "TO": "tonga",
  "TT": "trinidad",
  "TN": "tunisia",
  "TR": "turkey",
  "TM": "turkmenistan",
  "TC": "turks & caicos",
  "TV": "tuvalu",
  "VI": "U virgin islands",
  "UG": "uganda",
  "UA": "ukraine",
  "AE": "utd arab emirates",
  "GB": "united kingdom",
  "US": "united states",
  "UY": "uruguay",
  "UZ": "uzbekistan",
  "VU": "vanuatu",
  "VA": "vatican city",
  "VE": "venezuela",
  "VN": "vietnam",
  "WF": "wallis & futuna",
  "EH": "western sahara",
  "YE": "yemen",
  "ZM": "zambia",
  "ZW": "zimbabwe"
}
